#-------------------------------
[002]
BattleEnv       = PUEBLO
#-------------------------------
[015]
BattleEnv       = RUTA01
#-------------------------------
[023]
BattleEnv       = RUTA02
#-------------------------------
[025]
BattleEnv       = RUTA01
#-------------------------------
[027]
BattleEnv       = RUTA01
#-------------------------------
[028]
BattleEnv       = BOSQUE
#-------------------------------
[031]
BattleEnv       = RUTA02
#-------------------------------
[037]
BattleEnv       = GYM01
#-------------------------------
[040]
BattleEnv       = RUTA02
#-------------------------------
[043]
BattleEnv       = MTLUNA
#-------------------------------
[044]
BattleEnv       = MTLUNA
#-------------------------------
[045]
BattleEnv       = MTLUNA
#-------------------------------
[046]
BattleEnv       = RUTA01